{
  "project_info": {
    "project_number": "514326528705",
    "firebase_url": "https://hackatonutepsa.firebaseio.com",
    "project_id": "hackatonutepsa",
    "storage_bucket": "hackatonutepsa.appspot.com"
  },
  "client": [
    {
      "client_info": {
        "mobilesdk_app_id": "1:514326528705:android:a232fd2b53aa78b48b8a40",
        "android_client_info": {
          "package_name": "com.example.agrisoft"
        }
      },
      "oauth_client": [
        {
          "client_id": "514326528705-456m56mbpq3nva92apdrhti129iu7orn.apps.googleusercontent.com",
          "client_type": 3
        }
      ],
      "api_key": [
        {
          "current_key": "AIzaSyDt_UUU3NGpIem8aQvkOImTM69PB9pHyXk"
        }
      ],
      "services": {
        "appinvite_service": {
          "other_platform_oauth_client": [
            {
              "client_id": "514326528705-456m56mbpq3nva92apdrhti129iu7orn.apps.googleusercontent.com",
              "client_type": 3
            }
          ]
        }
      }
    }
  ],
  "configuration_version": "1"
}